{
  "project_info": {
    "project_number": "70715829999",
    "project_id": "potitaxi-15523",
    "storage_bucket": "potitaxi-15523.appspot.com"
  },
  "client": [
    {
      "client_info": {
        "mobilesdk_app_id": "1:70715829999:android:76f27856fc86ba51ad751a",
        "android_client_info": {
          "package_name": "kz.itlead.poti_taxi"
        }
      },
      "oauth_client": [
        {
          "client_id": "70715829999-9ra0ko2nbd9ejvl9qf70fejpihj5gk5m.apps.googleusercontent.com",
          "client_type": 3
        }
      ],
      "api_key": [
        {
          "current_key": "AIzaSyC-LNKIV83LOJJegB3UfTtOc6D8a467KAs"
        }
      ],
      "services": {
        "appinvite_service": {
          "other_platform_oauth_client": [
            {
              "client_id": "70715829999-9ra0ko2nbd9ejvl9qf70fejpihj5gk5m.apps.googleusercontent.com",
              "client_type": 3
            },
            {
              "client_id": "70715829999-v20vl9j7m7grqijs4aevheb1hj3juo00.apps.googleusercontent.com",
              "client_type": 2,
              "ios_info": {
                "bundle_id": "kz.itlead.potiTaxi"
              }
            }
          ]
        }
      }
    }
  ],
  "configuration_version": "1"
}